{
  "id": "89559366-ddb5-4dd1-9b8d-912d66c8ef08",
  "name": "get a instance up",
  "auto": true,
  "contexts": [],
  "responses": [
    {
      "resetContexts": false,
      "affectedContexts": [],
      "parameters": [],
      "messages": [
        {
          "type": 0,
          "lang": "en",
          "speech": "ok"
        }
      ],
      "defaultResponsePlatforms": {
        "google": true
      },
      "speech": []
    }
  ],
  "priority": 500000,
  "webhookUsed": true,
  "webhookForSlotFilling": false,
  "lastUpdate": 1532836947,
  "fallbackIntent": false,
  "events": []
}